<?xml version="1.0" encoding="UTF-8" standalone="no"?>
<svg
   xmlns:dc="http://purl.org/dc/elements/1.1/"
   xmlns:cc="http://creativecommons.org/ns#"
   xmlns:rdf="http://www.w3.org/1999/02/22-rdf-syntax-ns#"
   xmlns:svg="http://www.w3.org/2000/svg"
   xmlns="http://www.w3.org/2000/svg"
   xmlns:xlink="http://www.w3.org/1999/xlink"
   xmlns:sodipodi="http://sodipodi.sourceforge.net/DTD/sodipodi-0.dtd"
   xmlns:inkscape="http://www.inkscape.org/namespaces/inkscape"
   width="16.0px"
   height="16.0px"
   viewBox="0 0 16.0 16.0"
   version="1.1"
   id="SVGRoot"
   sodipodi:docname="logoV1.svg"
   inkscape:version="1.0.1 (0767f8302a, 2020-10-17)">
  <defs
     id="defs1503">
    <linearGradient
       inkscape:collect="always"
       id="linearGradient2028">
      <stop
         style="stop-color:#a2d7e2;stop-opacity:1;"
         offset="0"
         id="stop2024" />
      <stop
         style="stop-color:#a2d7e2;stop-opacity:0;"
         offset="1"
         id="stop2026" />
    </linearGradient>
    <linearGradient
       inkscape:collect="always"
       id="linearGradient2020">
      <stop
         style="stop-color:#1a95ae;stop-opacity:1;"
         offset="0"
         id="stop2016" />
      <stop
         style="stop-color:#1a95ae;stop-opacity:0;"
         offset="1"
         id="stop2018" />
    </linearGradient>
    <linearGradient
       id="linearGradient3585"
       inkscape:collect="always">
      <stop
         id="stop3587"
         style="stop-color:#cc0000"
         offset="0" />
      <stop
         id="stop3589"
         style="stop-color:#a40000"
         offset="1" />
    </linearGradient>
    <linearGradient
       id="linearGradient4050-3"
       y2="96.707"
       gradientUnits="userSpaceOnUse"
       y1="112.79"
       gradientTransform="translate(8.9886,31.568)"
       x2="175.36"
       x1="144.6"
       inkscape:collect="always">
      <stop
         id="stop3829-7"
         style="stop-color:#888a85"
         offset="0" />
      <stop
         id="stop3831-2"
         style="stop-color:#888a85;stop-opacity:0"
         offset="1" />
    </linearGradient>
    <linearGradient
       inkscape:collect="always"
       xlink:href="#linearGradient4050-3"
       id="linearGradient2813"
       gradientUnits="userSpaceOnUse"
       gradientTransform="translate(8.9886,31.568)"
       x1="144.6"
       y1="112.79"
       x2="175.36"
       y2="96.707" />
    <linearGradient
       inkscape:collect="always"
       xlink:href="#linearGradient3585"
       id="linearGradient2815"
       gradientUnits="userSpaceOnUse"
       gradientTransform="translate(257.8,-24.74)"
       x1="-116.75"
       y1="119.36"
       x2="-98.75"
       y2="167.86" />
    <linearGradient
       inkscape:collect="always"
       xlink:href="#linearGradient4050-3"
       id="linearGradient2849"
       gradientUnits="userSpaceOnUse"
       gradientTransform="translate(8.9886,31.568)"
       x1="144.6"
       y1="112.79"
       x2="175.36"
       y2="96.707" />
    <linearGradient
       inkscape:collect="always"
       xlink:href="#linearGradient3585"
       id="linearGradient2851"
       gradientUnits="userSpaceOnUse"
       gradientTransform="translate(257.8,-24.74)"
       x1="-116.75"
       y1="119.36"
       x2="-98.75"
       y2="167.86" />
    <linearGradient
       inkscape:collect="always"
       xlink:href="#linearGradient4050-3"
       id="linearGradient2885"
       gradientUnits="userSpaceOnUse"
       gradientTransform="translate(8.9886,31.568)"
       x1="144.6"
       y1="112.79"
       x2="175.36"
       y2="96.707" />
    <linearGradient
       inkscape:collect="always"
       xlink:href="#linearGradient3585"
       id="linearGradient2887"
       gradientUnits="userSpaceOnUse"
       gradientTransform="translate(257.8,-24.74)"
       x1="-116.75"
       y1="119.36"
       x2="-98.75"
       y2="167.86" />
    <style
       id="style5904"
       type="text/css">
    .fil0 {fill:black}
  </style>
    <linearGradient
       inkscape:collect="always"
       xlink:href="#linearGradient2020"
       id="linearGradient2022"
       x1="108.92815"
       y1="158.12329"
       x2="124.9571"
       y2="158.12329"
       gradientUnits="userSpaceOnUse" />
    <linearGradient
       inkscape:collect="always"
       xlink:href="#linearGradient2028"
       id="linearGradient2030"
       x1="134.61406"
       y1="158.11154"
       x2="90.727425"
       y2="157.8261"
       gradientUnits="userSpaceOnUse" />
  </defs>
  <sodipodi:namedview
     id="base"
     pagecolor="#ffffff"
     bordercolor="#666666"
     borderopacity="1.0"
     inkscape:pageopacity="0.0"
     inkscape:pageshadow="2"
     inkscape:zoom="45.254834"
     inkscape:cx="6.9980436"
     inkscape:cy="9.0480074"
     inkscape:document-units="px"
     inkscape:current-layer="layer1-6"
     inkscape:document-rotation="0"
     showgrid="false"
     inkscape:window-width="1920"
     inkscape:window-height="1026"
     inkscape:window-x="0"
     inkscape:window-y="28"
     inkscape:window-maximized="1"
     inkscape:snap-global="false">
    <inkscape:grid
       type="xygrid"
       id="grid2073" />
  </sodipodi:namedview>
  <metadata
     id="metadata1506">
    <rdf:RDF>
      <cc:Work
         rdf:about="">
        <dc:format>image/svg+xml</dc:format>
        <dc:type
           rdf:resource="http://purl.org/dc/dcmitype/StillImage" />
        <dc:title />
      </cc:Work>
    </rdf:RDF>
  </metadata>
  <g
     inkscape:label="Layer 1"
     inkscape:groupmode="layer"
     id="layer1">
    <g
       id="layer1-6"
       inkscape:label="Capa 1"
       transform="translate(-108.91632,-150.08915)">
      <ellipse
         style="opacity:0.7;fill:#484d4f;stroke-width:8.02351"
         id="path2513"
         cx="116.94263"
         cy="158.12329"
         rx="8.0156403"
         ry="8.0313721" />
      <ellipse
         style="opacity:1;fill:url(#linearGradient2022);fill-opacity:1;stroke:#bdbabf;stroke-width:1.37;stroke-miterlimit:4;stroke-dasharray:none;stroke-opacity:1"
         id="ellipse2515"
         cx="116.94263"
         cy="158.12329"
         rx="7.3294725"
         ry="7.3438573" />
      <path
         style="fill:none;fill-opacity:1;stroke:#a2d7e2;stroke-width:1px;stroke-linecap:butt;stroke-linejoin:miter;stroke-opacity:1"
         d="m 111.94535,156.16195 4.8776,5.71579 3.10003,-8.20564 z"
         id="path3256" />
      <circle
         style="opacity:1;fill:#bdbabf;fill-opacity:1;stroke:none;stroke-width:0.037;stroke-miterlimit:4;stroke-dasharray:none;stroke-opacity:1"
         id="path3248"
         cx="119.543"
         cy="153.96309"
         r="3" />
      <g
         id="g2883"
         transform="matrix(0.03718527,0,0,0.03718527,113.97482,149.62708)">
        <path
           id="path2853"
           style="fill:url(#linearGradient2885)"
           d="m 157.48,160.45 c 0,0 40.659,-16.971 44.194,-21.567 3.5355,-4.5962 -26.517,-10.607 -26.517,-10.607 l -37.123,14.496 19.445,17.678 z" />
        <path
           id="path2855"
           style="fill:#c20000;fill-opacity:1"
           d="m 171.03,88.719 v -0.125 l -42,-15 -1.5625,1.3125 42.094,14.969 v 0.40625" />
        <path
           id="path2857"
           sodipodi:nodetypes="ccccc"
           style="fill:url(#linearGradient2887)"
           d="m 127.55,74.872 42,15 v 61.5 l -42,-15 z" />
        <path
           id="path2859"
           sodipodi:nodetypes="ccccccccccccccc"
           style="fill:#d3d7cf;fill-rule:evenodd"
           d="m 127.29,79.424 c -3.08643,0.392178 -5.77118,2.603553 -7.0937,4.5312 -0.42454,0.45997 -0.80168,0.88437 -1.125,1.2812 l 0.21875,0.40625 -0.5,-0.09375 c -0.0698,0.08831 -0.15569,0.19958 -0.21875,0.28125 l 0.0937,0.28125 -0.21875,-0.09375 C 118.09024,86.49267 117.79,86.9239 117.79,86.9239 l 41.094,15.469 9.6504,-7.6313 v -0.6875 l -41.244,-14.65 h 10e-5 z" />
        <path
           id="path2861"
           style="fill:#c20000;fill-opacity:1"
           d="m 159.28,98.219 v -0.125 l -42,-15 -1.5625,1.3125 42.094,14.969 v 0.40625" />
        <path
           id="path2863"
           sodipodi:nodetypes="cccc"
           style="fill:#7a0000"
           d="m 157.69,99.469 0.0442,61.447 1.4246,-1.6343 0.17678,-61.154" />
        <path
           id="path2865"
           sodipodi:nodetypes="ccccc"
           style="fill:#cc0000;fill-opacity:1"
           d="m 115.8,84.372 42,15 v 61.5 l -42,-15 z" />
        <path
           id="path2867"
           sodipodi:nodetypes="cccc"
           style="fill:#842b29;fill-rule:evenodd"
           d="m 158.12,99.612 -0.375,1.125 0.375,44.625 z" />
        <path
           id="path2869"
           sodipodi:nodetypes="ccccc"
           style="fill:#888a85;fill-opacity:0"
           d="m 120.7,83.386 17.714,6.6863 -17.76,-5.8109 0.0461,-0.87538 h -2e-5 z" />
        <path
           id="path2871"
           sodipodi:nodetypes="cccc"
           style="fill:#888a85;fill-opacity:0"
           d="m 123.35,81.245 17.683,6.9363 -17.802,-6.5019 0.11871,-0.43436 z" />
        <path
           id="path2873"
           sodipodi:nodetypes="cccccc"
           style="fill:#888a85;fill-opacity:0"
           d="m 122.36,81.886 17.902,6.5925 -17.854,-6.0921 -0.0477,-0.50038 h -2e-5 -5e-5 z" />
        <path
           id="path2875"
           sodipodi:nodetypes="ccccc"
           style="fill:#888a85;fill-opacity:0"
           d="m 124.08,80.636 c 20.61816,7.685423 18.82464,6.946894 3e-4,2e-5 h -2e-5 -5e-5 z" />
        <path
           id="path2877"
           sodipodi:nodetypes="ccccccc"
           style="fill:#888a85;fill-opacity:0"
           d="m 125.7,79.823 18.589,6.8738 -18.542,-6.3734 -0.0477,-0.50038 h -2e-5 -5e-5 5e-5 z" />
        <path
           id="path2879"
           sodipodi:nodetypes="cccccc"
           style="fill:#c20000;fill-opacity:1"
           d="m 157.75,99.451 c 13.877,-1.8562 13.5,-10.75 13.5,-10.75 0.88388,2.1213 -0.0884,61.213 -0.0884,61.213 -0.17678,1.149 -1.73132,8.99045 -13.31062,10.93545 L 157.7496,99.451 Z" />
        <path
           id="path2881"
           sodipodi:nodetypes="cccccc"
           style="fill:#c20000;fill-opacity:1"
           d="m 159.12,98.182 -1.4897,1.2687 c 7.7081,-0.85485 14.208,-5.2701 13.635,-10.562 l -0.22097,-0.26516 -1.5468,1.3258 c 0.57452,0.30936 -0.83211,6.6863 -10.378,8.2331 z" />
      </g>
      <circle
         style="opacity:1;fill:#bdbabf;fill-opacity:1;stroke:none;stroke-width:1.55824;stroke-miterlimit:4;stroke-dasharray:none;stroke-opacity:1"
         id="path3250"
         cx="111.74306"
         cy="156.00531"
         r="2.2747774" />
      <circle
         style="opacity:1;fill:#bdbabf;fill-opacity:1;fill-rule:nonzero;stroke:none;stroke-width:1.37;stroke-miterlimit:4;stroke-dasharray:none;stroke-opacity:1"
         id="path3252"
         cx="116.91966"
         cy="162.09518"
         r="4" />
      <g
         id="g2721"
         transform="matrix(0.02517385,0,0,0.02517385,108.3383,153.11974)"
         style="stroke-width:0.995018;stroke-miterlimit:4;stroke-dasharray:none">
        <path
           id="path2691"
           style="fill:url(#linearGradient2813);stroke-width:0.995018;stroke-miterlimit:4;stroke-dasharray:none"
           d="m 157.48,160.45 c 0,0 40.659,-16.971 44.194,-21.567 3.5355,-4.5962 -26.517,-10.607 -26.517,-10.607 l -37.123,14.496 19.445,17.678 z" />
        <path
           id="path2693"
           style="fill:#c20000;fill-opacity:1;stroke-width:0.995018;stroke-miterlimit:4;stroke-dasharray:none"
           d="m 171.03,88.719 v -0.125 l -42,-15 -1.5625,1.3125 42.094,14.969 v 0.40625" />
        <path
           id="path2695"
           sodipodi:nodetypes="ccccc"
           style="fill:url(#linearGradient2815);stroke-width:0.995018;stroke-miterlimit:4;stroke-dasharray:none"
           d="m 127.55,74.872 42,15 v 61.5 l -42,-15 z" />
        <path
           id="path2697"
           sodipodi:nodetypes="ccccccccccccccc"
           style="fill:#d3d7cf;fill-rule:evenodd;stroke-width:0.995018;stroke-miterlimit:4;stroke-dasharray:none"
           d="m 127.29,79.424 c -3.08643,0.392178 -5.77118,2.603553 -7.0937,4.5312 -0.42454,0.45997 -0.80168,0.88437 -1.125,1.2812 l 0.21875,0.40625 -0.5,-0.09375 c -0.0698,0.08831 -0.15569,0.19958 -0.21875,0.28125 l 0.0937,0.28125 -0.21875,-0.09375 C 118.09024,86.49267 117.79,86.9239 117.79,86.9239 l 41.094,15.469 9.6504,-7.6313 v -0.6875 l -41.244,-14.65 h 10e-5 z" />
        <path
           id="path2699"
           style="fill:#c20000;fill-opacity:1;stroke-width:0.995018;stroke-miterlimit:4;stroke-dasharray:none"
           d="m 159.28,98.219 v -0.125 l -42,-15 -1.5625,1.3125 42.094,14.969 v 0.40625" />
        <path
           id="path2701"
           sodipodi:nodetypes="cccc"
           style="fill:#7a0000;stroke-width:0.995018;stroke-miterlimit:4;stroke-dasharray:none"
           d="m 157.69,99.469 0.0442,61.447 1.4246,-1.6343 0.17678,-61.154" />
        <path
           id="path2703"
           sodipodi:nodetypes="ccccc"
           style="fill:#cc0000;fill-opacity:1;stroke-width:0.995018;stroke-miterlimit:4;stroke-dasharray:none"
           d="m 115.8,84.372 42,15 v 61.5 l -42,-15 z" />
        <path
           id="path2705"
           sodipodi:nodetypes="cccc"
           style="fill:#842b29;fill-rule:evenodd;stroke-width:0.995018;stroke-miterlimit:4;stroke-dasharray:none"
           d="m 158.12,99.612 -0.375,1.125 0.375,44.625 z" />
        <path
           id="path2707"
           sodipodi:nodetypes="ccccc"
           style="fill:#888a85;fill-opacity:0;stroke-width:0.995018;stroke-miterlimit:4;stroke-dasharray:none"
           d="m 120.7,83.386 17.714,6.6863 -17.76,-5.8109 0.0461,-0.87538 h -2e-5 z" />
        <path
           id="path2709"
           sodipodi:nodetypes="cccc"
           style="fill:#888a85;fill-opacity:0;stroke-width:0.995018;stroke-miterlimit:4;stroke-dasharray:none"
           d="m 123.35,81.245 17.683,6.9363 -17.802,-6.5019 0.11871,-0.43436 z" />
        <path
           id="path2711"
           sodipodi:nodetypes="cccccc"
           style="fill:#888a85;fill-opacity:0;stroke-width:0.995018;stroke-miterlimit:4;stroke-dasharray:none"
           d="m 122.36,81.886 17.902,6.5925 -17.854,-6.0921 -0.0477,-0.50038 h -2e-5 -5e-5 z" />
        <path
           id="path2713"
           sodipodi:nodetypes="ccccc"
           style="fill:#888a85;fill-opacity:0;stroke-width:0.995018;stroke-miterlimit:4;stroke-dasharray:none"
           d="m 124.08,80.636 c 20.61816,7.685423 18.82464,6.946894 3e-4,2e-5 h -2e-5 -5e-5 z" />
        <path
           id="path2715"
           sodipodi:nodetypes="ccccccc"
           style="fill:#888a85;fill-opacity:0;stroke-width:0.995018;stroke-miterlimit:4;stroke-dasharray:none"
           d="m 125.7,79.823 18.589,6.8738 -18.542,-6.3734 -0.0477,-0.50038 h -2e-5 -5e-5 5e-5 z" />
        <path
           id="path2717"
           sodipodi:nodetypes="cccccc"
           style="fill:#c20000;fill-opacity:1;stroke-width:0.995018;stroke-miterlimit:4;stroke-dasharray:none"
           d="m 157.75,99.451 c 13.877,-1.8562 13.5,-10.75 13.5,-10.75 0.88388,2.1213 -0.0884,61.213 -0.0884,61.213 -0.17678,1.149 -1.73132,8.99045 -13.31062,10.93545 L 157.7496,99.451 Z" />
        <path
           id="path2719"
           sodipodi:nodetypes="cccccc"
           style="fill:#c20000;fill-opacity:1;stroke-width:0.995018;stroke-miterlimit:4;stroke-dasharray:none"
           d="m 159.12,98.182 -1.4897,1.2687 c 7.7081,-0.85485 14.208,-5.2701 13.635,-10.562 l -0.22097,-0.26516 -1.5468,1.3258 c 0.57452,0.30936 -0.83211,6.6863 -10.378,8.2331 z" />
      </g>
      <g
         id="g2847"
         transform="matrix(0.0506988,0,0,0.0506988,109.38369,155.78263)">
        <path
           id="path2817"
           style="fill:url(#linearGradient2849)"
           d="m 157.48,160.45 c 0,0 40.659,-16.971 44.194,-21.567 3.5355,-4.5962 -26.517,-10.607 -26.517,-10.607 l -37.123,14.496 19.445,17.678 z" />
        <path
           id="path2819"
           style="fill:#c20000;fill-opacity:1"
           d="m 171.03,88.719 v -0.125 l -42,-15 -1.5625,1.3125 42.094,14.969 v 0.40625" />
        <path
           id="path2821"
           sodipodi:nodetypes="ccccc"
           style="fill:url(#linearGradient2851)"
           d="m 127.55,74.872 42,15 v 61.5 l -42,-15 z" />
        <path
           id="path2823"
           sodipodi:nodetypes="ccccccccccccccc"
           style="fill:#d3d7cf;fill-rule:evenodd"
           d="m 127.29,79.424 c -3.08643,0.392178 -5.77118,2.603553 -7.0937,4.5312 -0.42454,0.45997 -0.80168,0.88437 -1.125,1.2812 l 0.21875,0.40625 -0.5,-0.09375 c -0.0698,0.08831 -0.15569,0.19958 -0.21875,0.28125 l 0.0937,0.28125 -0.21875,-0.09375 C 118.09024,86.49267 117.79,86.9239 117.79,86.9239 l 41.094,15.469 9.6504,-7.6313 v -0.6875 l -41.244,-14.65 h 10e-5 z" />
        <path
           id="path2825"
           style="fill:#c20000;fill-opacity:1"
           d="m 159.28,98.219 v -0.125 l -42,-15 -1.5625,1.3125 42.094,14.969 v 0.40625" />
        <path
           id="path2827"
           sodipodi:nodetypes="cccc"
           style="fill:#7a0000"
           d="m 157.69,99.469 0.0442,61.447 1.4246,-1.6343 0.17678,-61.154" />
        <path
           id="path2829"
           sodipodi:nodetypes="ccccc"
           style="fill:#cc0000;fill-opacity:1"
           d="m 115.8,84.372 42,15 v 61.5 l -42,-15 z" />
        <path
           id="path2831"
           sodipodi:nodetypes="cccc"
           style="fill:#842b29;fill-rule:evenodd"
           d="m 158.12,99.612 -0.375,1.125 0.375,44.625 z" />
        <path
           id="path2833"
           sodipodi:nodetypes="ccccc"
           style="fill:#888a85;fill-opacity:0"
           d="m 120.7,83.386 17.714,6.6863 -17.76,-5.8109 0.0461,-0.87538 h -2e-5 z" />
        <path
           id="path2835"
           sodipodi:nodetypes="cccc"
           style="fill:#888a85;fill-opacity:0"
           d="m 123.35,81.245 17.683,6.9363 -17.802,-6.5019 0.11871,-0.43436 z" />
        <path
           id="path2837"
           sodipodi:nodetypes="cccccc"
           style="fill:#888a85;fill-opacity:0"
           d="m 122.36,81.886 17.902,6.5925 -17.854,-6.0921 -0.0477,-0.50038 h -2e-5 -5e-5 z" />
        <path
           id="path2839"
           sodipodi:nodetypes="ccccc"
           style="fill:#888a85;fill-opacity:0"
           d="m 124.08,80.636 c 20.61816,7.685423 18.82464,6.946894 3e-4,2e-5 h -2e-5 -5e-5 z" />
        <path
           id="path2841"
           sodipodi:nodetypes="ccccccc"
           style="fill:#888a85;fill-opacity:0"
           d="m 125.7,79.823 18.589,6.8738 -18.542,-6.3734 -0.0477,-0.50038 h -2e-5 -5e-5 5e-5 z" />
        <path
           id="path2843"
           sodipodi:nodetypes="cccccc"
           style="fill:#c20000;fill-opacity:1"
           d="m 157.75,99.451 c 13.877,-1.8562 13.5,-10.75 13.5,-10.75 0.88388,2.1213 -0.0884,61.213 -0.0884,61.213 -0.17678,1.149 -1.73132,8.99045 -13.31062,10.93545 L 157.7496,99.451 Z" />
        <path
           id="path2845"
           sodipodi:nodetypes="cccccc"
           style="fill:#c20000;fill-opacity:1"
           d="m 159.12,98.182 -1.4897,1.2687 c 7.7081,-0.85485 14.208,-5.2701 13.635,-10.562 l -0.22097,-0.26516 -1.5468,1.3258 c 0.57452,0.30936 -0.83211,6.6863 -10.378,8.2331 z" />
      </g>
      <ellipse
         style="opacity:1;fill:none;stroke:url(#linearGradient2030);stroke-width:1.37;stroke-miterlimit:4;stroke-dasharray:none;stroke-opacity:1"
         id="ellipse3254"
         cx="116.94263"
         cy="158.12329"
         rx="7.3294725"
         ry="7.3438573" />
    </g>
  </g>
</svg>
